// For the firesky and other crap
texture sky_f001
pic 1 tics 3
pic 2 tics 3
pic 3 tics 3
pic 4 tics 3
pic 5 tics 3
pic 6 tics 3
pic 7 tics 3
pic 8 tics 3
pic 9 tics 3
pic 10 tics 3
pic 11 tics 3
pic 12 tics 3
pic 13 tics 3
pic 14 tics 3
pic 15 tics 3
pic 16 tics 3
pic 17 tics 3
pic 18 tics 3
pic 19 tics 3
pic 20 tics 3
pic 21 tics 3
pic 22 tics 3
pic 23 tics 3
pic 24 tics 3
pic 25 tics 3
pic 26 tics 3
pic 27 tics 3
pic 28 tics 3
pic 29 tics 3
pic 30 tics 3
pic 31 tics 3
pic 32 tics 3
pic 33 tics 3
pic 34 tics 3
pic 35 tics 3
pic 36 tics 3
pic 37 tics 3
pic 38 tics 3
pic 39 tics 3
pic 40 tics 3
pic 41 tics 3
pic 42 tics 3
pic 43 tics 3
pic 44 tics 3
pic 45 tics 3
pic 46 tics 3
pic 47 tics 3
pic 48 tics 3
pic 49 tics 3
pic 50 tics 3
pic 51 tics 3
pic 52 tics 3
pic 53 tics 3
pic 54 tics 3
pic 55 tics 3
pic 56 tics 3
pic 57 tics 3
pic 58 tics 3
pic 59 tics 3
pic 60 tics 3
pic 61 tics 3
pic 62 tics 3
pic 63 tics 3
pic 64 tics 3
pic 65 tics 3
pic 66 tics 3
pic 67 tics 3
pic 68 tics 3
pic 69 tics 3
pic 70 tics 3
pic 71 tics 3
pic 72 tics 3
pic 73 tics 3
pic 74 tics 3
pic 75 tics 3
pic 76 tics 3
pic 77 tics 3
pic 78 tics 3
pic 79 tics 3
pic 80 tics 3
pic 81 tics 3
pic 82 tics 3
pic 83 tics 3
pic 84 tics 3
pic 85 tics 3
pic 86 tics 3
pic 87 tics 3
pic 88 tics 3
pic 89 tics 3
pic 90 tics 3
pic 91 tics 3
pic 92 tics 3
pic 93 tics 3
pic 94 tics 3
pic 95 tics 3
pic 96 tics 3
pic 97 tics 3
pic 98 tics 3
pic 99 tics 3
pic 100 tics 3
pic 101 tics 3
pic 102 tics 3
pic 103 tics 3
pic 104 tics 3
pic 105 tics 3
pic 106 tics 3
pic 107 tics 3
pic 108 tics 3
pic 109 tics 3
pic 110 tics 3
pic 111 tics 3
pic 112 tics 3
pic 113 tics 3
pic 114 tics 3
pic 115 tics 3
pic 116 tics 3
pic 117 tics 3
pic 118 tics 3
pic 119 tics 3
pic 120 tics 3
pic 121 tics 3
pic 122 tics 3
pic 123 tics 3
pic 124 tics 3
pic 125 tics 3
pic 126 tics 3
pic 127 tics 3
pic 128 tics 3
pic 129 tics 3
pic 130 tics 3
pic 131 tics 3
pic 132 tics 3
pic 133 tics 3
pic 134 tics 3
pic 135 tics 3
pic 136 tics 3
pic 137 tics 3
pic 138 tics 3
pic 139 tics 3
pic 140 tics 3
pic 141 tics 3
pic 142 tics 3
pic 143 tics 3
pic 144 tics 3
pic 145 tics 3
pic 146 tics 3
pic 147 tics 3
pic 148 tics 3
pic 149 tics 3
pic 150 tics 3

warp texture SJFOA0