Gameinfo
{
	PlayerClasses = "DoomPlayer2",
					"HunterPlayer",
					"Cyborg",
					"Cyborg2",
					"ghostbuster",
					"Engineer",
					
					"Sjas",
					"Jitterskull",
					"Choke",
					"FrostBite",
					"Creeper",
					"Creeper2"
}